$ 1 0.000005 242.03481360272136 45 5 43 5e-11
g -80 160 -80 176 0 0
r 0 80 0 112 0 1000
g 0 256 0 272 0 0
w 0 112 0 128 0
R 0 80 0 48 0 0 40 5 0 0 0.5
f -64 144 0 144 32 1.5 0.02
174 -80 128 -80 160 1 1000 0.005 Resistance
R -80 128 -80 96 0 0 40 5 0 0 0.5
R -80 224 -80 192 0 0 40 5 0 0 0.5
174 -80 224 -80 256 1 1000 0.9950000000000001 Resistance
f -64 240 0 240 32 1.5 0.02
g -80 256 -80 272 0 0
w 0 224 0 160 0
c 128 112 128 144 0 0.000001 0.0711376174624056 0.001
g 128 144 128 176 0 0
w 64 112 128 112 0
r 64 64 64 96 0 1000
w 64 160 64 144 0
g 64 160 64 176 0 0
w 64 96 64 112 0
R 64 64 64 32 0 0 40 5 0 0 0.5
f 0 128 64 128 32 1.5 0.02
