$ 1 0.000005 14.235633750745258 50 5 43 5e-11
R -80 128 -80 96 0 0 40 5 0 0 0.5
174 -80 128 -80 160 1 1000 0.005 Resistance
f -64 144 0 144 32 1.5 0.02
R 0 80 0 48 0 0 40 5 0 0 0.5
w 0 112 0 128 0
g 0 176 0 192 0 0
w 0 176 0 160 0
r 0 80 0 112 0 1000
w 0 128 64 128 0
g 64 160 64 192 0 0
g -80 160 -80 176 0 0
c 64 128 64 160 0 0.000001 0.07164831615963765 0.001
